[npc]
Cooltrainer Darin
up
265
19
8
Dragonair,37
1
-1
0
false
false
false
[/npc]
[npc]
Cooltrainer Cara
down
375
8
8
Horsea,33,Horsea,33,Seadra,35
3
-1
1
false
false
false
[/npc]
[npc]
Twin Lea
down
374
4
17
Dratini,35
1
-1
2
false
false
false
[/npc]
[npc]
Twin Pia
down
373
5
17
Dratini,35
1
-1
3
false
false
false
[/npc]
[npc]
NULL
down
0
17
24
NULL
0
-1
4,5
false
false
false
[/npc]
[warp]
19
3
7
19
-47
-47
0
[/warp]
