[npc]
Twin Ann
down
262
6
15
Clefairy,16
1
-1
0
false
false
false
[/npc]
[npc]
Twin Anne
down
262
7
15
Jigglypuff,16
1
-1
0
false
false
false
[/npc]
[npc]
Psychic Greg
right
321
6
8
Drowzee,17
1
-1
0
false
false
false
[/npc]
[npc]
NULL
down
0
5
5
NULL
0
-1
1
false
false
false
[/npc]

