[npc]
Battlefrontier - battlepike lady - any lvl
down
363
6
5
NULL
0
-1
1
false
false
false
[/npc]
[npc]
NULL
down
0
11
3
NULL
0
-1
2
false
true
false
[/npc]
[warp]
6
13
44
28
29
26
0
[/warp]