[npc]
fatina
down
247
12
9
Lunatone,60,Solrock,60,Xatu,60,Claydol,60
4
28
0
false
false
false
[/npc]
[warp]
12
94
51
65
40
-42
0
[/warp]
[warp]
13
94
51
65
40
-42
0
[/warp]
[warp]
12
86
13
70
-45
48
0
[/warp]
[warp]
13
86
14
70
-45
48
0
[/warp]
[warp]
13
70
12
87
-45
48
0
[/warp]
[warp]
14
70
13
87
-45
48
0
[/warp]
[warp]
17
63
13
47
-45
48
0
[/warp]
[warp]
18
63
14
47
-45
48
0
[/warp]
[warp]
13
63
20
88
-45
48
0
[/warp]
[warp]
14
63
20
88
-45
48
0
[/warp]
[warp]
9
63
20
88
-45
48
0
[/warp]
[warp]
10
63
20
88
-45
48
0
[/warp]
[warp]
13
47
12
87
-45
48
0
[/warp]
[warp]
14
47
13
87
-45
48
0
[/warp]
[warp]
9
30
11
13
-45
48
0
[/warp]
[warp]
10
30
12
13
-45
48
0
[/warp]
[warp]
4
30
20
88
-45
48
0
[/warp]
[warp]
5
30
20
88
-45
48
0
[/warp]
[warp]
14
30
20
88
-45
48
0
[/warp]
[warp]
15
30
20
88
-45
48
0
[/warp]
[warp]
19
30
20
88
-45
48
0
[/warp]
[warp]
20
30
20
88
-45
48
0
[/warp]
[warp]
24
30
20
88
-45
48
0
[/warp]
[warp]
25
30
20
88
-45
48
0
[/warp]
[warp]
22
3
20
88
-45
48
0
[/warp]