[warp]
6
9
13
29
6
-4
0
[/warp]
[warp]
7
9
14
29
6
-4
0
[/warp]
[npc]
Shop Keeper
left
185
10
2
NULL
0
-1
1
FALSE
FALSE
FALSE
[/npc]
[npc]
Customer
left
336
9
7
NULL
0
-1
2
FALSE
FALSE
FALSE
[/npc]