[npc]
NULL
down
0
17
11
NULL
0
-1
0
false
false
false
[/npc]
[npc]
NULL
down
0
7
12
NULL
0
-1
1,2,3
false
false
false
[/npc]
[npc]
NULL
down
0
20
24
NULL
0
-1
4
false
false
false
[/npc]
[npc]
NULL
down
0
3
23
NULL
0
-1
5
false
false
false
[/npc]
[warp]
30
27
10
16
-39
-38
0
[/warp]
[warp]
14
21
15
16
-32
-33
0
[/warp]
[warp]
19
17
5
7
-49
-33
0
[/warp]
[warp]
7
21
4
11
-45
-44
0
[/warp]
[warp]
19
27
5
1
-41
-40
0
[/warp]
[warp]
20
27
6
1
-41
-40
0
[/warp]
[warp]
12
16
4
11
-42
-41
0
[/warp]
[warp]
23
12
4
11
-43
-42
0
[/warp]
[warp]
28
12
4
11
-44
-43
0
[/warp]
[warp]
11
12
23
32
-49
-37
0
[/warp]
[npc]
Seasond_Sailor
down
395
20
20
NULL
0
-1
0
false
false
false
[/npc]
