[warp]
24
53
10
4
22
23
0
[/warp]
[warp]
25
53
11
4
22
23
0
[/warp]
[warp]
22
12
10
29
22
22
0
[/warp]
[warp]
23
12
11
29
22
22
0
[/warp]
[warp]
44
53
32
6
22
23
0
[/warp]
[warp]
45
53
33
6
22
23
0
[/warp]